rok,rocnik,filmu,vstupenek,projekci,akreditovanych,zacatek,konec,dnu
1995,30,226,75000,,3235,30.6.1995,8.7.1995,8
1996,31,251,80000,341,5900,5.7.1996,13.7.1996,8
1997,32,297,107500,438,6850,4.7.1997,12.7.1997,8
1998,33,213,120000,465,7173,3.7.1998,11.7.1998,8
1999,34,247,118000,351,5966,2.7.1999,10.7.1999,8
2000,35,293,142270,536,9130,5.7.2000,15.7.2000,10
2001,36,282,128500,514,9748,5.7.2001,14.7.2001,9
2002,37,292,139120,534,10880,4.7.2002,13.7.2002,9
2003,38,304,122440,476,10480,4.7.2003,12.7.2003,8
2004,39,235,123749,416,10712,2.7.2004,10.7.2004,8
2005,40,278,142506,517,12112,1.7.2005,9.7.2005,8
2006,41,268,135820,474,11495,30.6.2006,8.7.2006,8
2007,42,250,135759,480,12071,29.6.2007,7.7.2007,8
2008,43,235,143781,477,10872,4.7.2008,12.7.2008,8
2009,44,232,131293,464,12061,3.7.2009,11.7.2009,8
2010,45,207,126808,413,11105,2.7.2010,10.7.2010,8
2011,46,199,126302,413,12033,1.7.2011,9.7.2011,8
2012,47,218,121070,410,11471,29.6.2012,7.7.2012,8
2013,48,235,128031,461,12028,28.6.2013,6.7.2013,8
2014,49,245,130987,478,12433,4.7.2014,12.7.2014,8